Finding correlations
…
A standard method of looking for correlations is to use a correlation matrix. These are often generated by using Pearson’s r - a measure of correlation. If you’re interested in finding out more, see Core statistics 3: correlations.

This is not a statistics course, but what we’re doing here is focussing on how we can visualise such a matrix. A matrix is simply a data frame with just numerical values. The reason why we can’t use the entire gapminder data set is because we can’t calculate correlations between groups. After all, it wouldn’t make sense to explore if world region is correlated with main religion, for example!

Because we’re only able to calculate correlations between numerical variables, we first need pull out only those columns that are numeric. We’re also not interested in the year variable, because we know there is only one value in that one anyway (the year 2010),

R
Python

gapminder %>% 
  select(where(is.numeric)) %>% 
  select(-year)

# A tibble: 167 × 7
   children_per_wom… life_expectancy income_per_pers… population child_mortality
               <dbl>           <dbl>            <dbl>      <dbl>           <dbl>
 1              5.82            59.8             1672   29185511           88.0 
 2              6.16            59.9             6360   23356247          120.  
 3              1.65            77.6             9928    2948029           13.3 
 4              1.87            72.9            55363    8549998            8.48
 5              2.37            75.8            18912   40895751           14.4 
 6              1.55            74.0             6703    2877314           18.5 
 7              2.13            76.6            20660      88030            9.59
 8              1.93            82.0            41530   22154687            4.77
 9              1.44            80.6            43336    8409945            4.33
10              1.96            69.3            16216    9032465           37.6 
# … with 157 more rows, and 2 more variables: life_expectancy_female <dbl>,
#   life_expectancy_male <dbl>
…
