Data distributions
…
To find the country with the highest level of income, we need to filter our data. We need to do this in descending order, so we’re combining the arrange() function with the desc() helper function.

gapminder %>% 
  arrange(desc(income_per_person))

# A tibble: 167 × 13
   country  world_region  year children_per_wo… life_expectancy income_per_pers…
   <chr>    <chr>        <dbl>            <dbl>           <dbl>            <dbl>
 1 Qatar    middle_east…  2010             2.07            78.0           119974
 2 Luxembo… europe_cent…  2010             1.58            80.8            91743
 3 Brunei   east_asia_p…  2010             1.84            75.1            80556
 4 Kuwait   middle_east…  2010             2.22            81.2            75360
 5 Singapo… east_asia_p…  2010             1.26            83.2            73061
 6 Norway   europe_cent…  2010             1.95            80.9            62350
 7 Switzer… europe_cent…  2010             1.5             82.5            55866
 8 United … middle_east…  2010             1.87            72.9            55363
 9 United … america       2010             1.93            78.7            49479
10 Netherl… europe_cent…  2010             1.8             80.8            46102
# … with 157 more rows, and 7 more variables: is_oecd <lgl>,
#   income_groups <chr>, population <dbl>, main_religion <chr>,
#   child_mortality <dbl>, life_expectancy_female <dbl>,
#   life_expectancy_male <dbl>
…
Level:   

Find the country that has the lowest life expectancy.

Answer

R
Python

We can arrange the data by life_expectancy in ascending order, using the arrange() function:

gapminder %>% 
  arrange(life_expectancy)

# A tibble: 167 × 13
   country  world_region  year children_per_wo… life_expectancy income_per_pers…
   <chr>    <chr>        <dbl>            <dbl>           <dbl>            <dbl>
 1 Haiti    america       2010             3.33            32.5             1510
 2 Eswatini sub_saharan…  2010             3.53            46.0             8242
 3 Lesotho  sub_saharan…  2010             3.3             47.8             2419
 4 Zimbabwe sub_saharan…  2010             4.03            49.7             1928
 5 Mozambi… sub_saharan…  2010             5.56            52.0              945
 6 Malawi   sub_saharan…  2010             5.31            54.2             1078
 7 Somalia  sub_saharan…  2010             6.87            55.0              614
 8 Zambia   sub_saharan…  2010             5.4             56.0             3338
 9 South A… sub_saharan…  2010             2.59            56.1            11973
10 Papua N… east_asia_p…  2010             3.99            56.3             3103
# … with 157 more rows, and 7 more variables: is_oecd <lgl>,
#   income_groups <chr>, population <dbl>, main_religion <chr>,
#   child_mortality <dbl>, life_expectancy_female <dbl>,
#   life_expectancy_male <dbl>
…
