8 Data wrangling
…
Sometimes you’ll have to create new columns in your data set. For example, you might have a column that records something in kilograms, but you need it in milligrams. You’d then have to either convert the original column or create a new one with the new data.

Let’s see how to do this using the weight column from the finches data.

R

We’ll use pipes to do this, so we can see what R is doing without immediately updating the data. This is generally a useful technique: check each step one-by-one and after you’re happy with the changes, then update the table.

To add a column, we use the mutate() function. We first define the name of the new column, then tell it what needs to go in it.

finches %>% 
  mutate(weight_kg = weight / 1000)

# A tibble: 180 × 13
   species   group   weight  wing tarsus blength bdepth bwidth pc1_body pc1_beak
   <chr>     <chr>    <dbl> <dbl>  <dbl>   <dbl>  <dbl>  <dbl>    <dbl>    <dbl>
 1 G. fortis early_…   15.8  67.1   19.6   10.3    8.95   8.32    0.382   -0.431
 2 G. fortis early_…   15.2  66     18.3   10.4    8.7    8.4    -1.06    -0.452
 3 G. fortis early_…   18.0  68     18.9   11.2    9.6    8.83    0.839    0.955
 4 G. fortis early_…   18.5  70.3   19.7   11      9.7    8.73    2.16     0.824
 5 G. fortis early_…   15.7  69     18.9   10.9    9.8    9       0.332    1.08 
 6 G. fortis early_…   17.8  70.1   19.2   12.7   10.9    9.79    1.50     3.55 
 7 G. fortis early_…   17.2  69     20.3   11.9    9.8    9       1.86     1.67 
 8 G. fortis early_…   17.2  68.5   19.2   11.4    9.8    8.6     0.879    1.00 
 9 G. fortis early_…   16.5  66.3   18.7    9.04   8.42   7.98   -0.227   -1.81 
10 G. fortis early_…   19.4  69     18.7   11.3    9.6    8.8     1.39     1.00 
# ℹ 170 more rows
# ℹ 3 more variables: pc2_beak <dbl>, is_early <lgl>, weight_kg <dbl>

You’ll probably notice that our new column isn’t visible on screen. This is because we have quite a few columns in our table. We can move the new column to directly after the weight column. We use the relocate() function for this.

We tell relocate() which column we want to move, then use the .after = argument to specify where we want to insert the column.

finches %>% 
  mutate(weight_kg = weight / 1000) %>% 
  relocate(weight_kg, .after = weight)

# A tibble: 180 × 13
   species   group  weight weight_kg  wing tarsus blength bdepth bwidth pc1_body
   <chr>     <chr>   <dbl>     <dbl> <dbl>  <dbl>   <dbl>  <dbl>  <dbl>    <dbl>
 1 G. fortis early…   15.8    0.0158  67.1   19.6   10.3    8.95   8.32    0.382
 2 G. fortis early…   15.2    0.0152  66     18.3   10.4    8.7    8.4    -1.06 
 3 G. fortis early…   18.0    0.0180  68     18.9   11.2    9.6    8.83    0.839
 4 G. fortis early…   18.5    0.0185  70.3   19.7   11      9.7    8.73    2.16 
 5 G. fortis early…   15.7    0.0157  69     18.9   10.9    9.8    9       0.332
 6 G. fortis early…   17.8    0.0178  70.1   19.2   12.7   10.9    9.79    1.50 
 7 G. fortis early…   17.2    0.0172  69     20.3   11.9    9.8    9       1.86 
 8 G. fortis early…   17.2    0.0172  68.5   19.2   11.4    9.8    8.6     0.879
 9 G. fortis early…   16.5    0.0165  66.3   18.7    9.04   8.42   7.98   -0.227
10 G. fortis early…   19.4    0.0194  69     18.7   11.3    9.6    8.8     1.39 
# ℹ 170 more rows
# ℹ 3 more variables: pc1_beak <dbl>, pc2_beak <dbl>, is_early <lgl>
…
There are two steps to this process:

We need to split the data by species.

We need to count the number of rows (= observations) in each subgroup.

R

We can use the group_by() function to group data by a given variable. Here, we will group the data by species:

finches %>% 
  group_by(species)

# A tibble: 180 × 13
# Groups:   species [2]
   species   group  weight weight_kg  wing tarsus blength bdepth bwidth pc1_body
   <chr>     <chr>   <dbl>     <dbl> <dbl>  <dbl>   <dbl>  <dbl>  <dbl>    <dbl>
 1 G. fortis early…   15.8    0.0158  67.1   19.6   10.3    8.95   8.32    0.382
 2 G. fortis early…   15.2    0.0152  66     18.3   10.4    8.7    8.4    -1.06 
 3 G. fortis early…   18.0    0.0180  68     18.9   11.2    9.6    8.83    0.839
 4 G. fortis early…   18.5    0.0185  70.3   19.7   11      9.7    8.73    2.16 
 5 G. fortis early…   15.7    0.0157  69     18.9   10.9    9.8    9       0.332
 6 G. fortis early…   17.8    0.0178  70.1   19.2   12.7   10.9    9.79    1.50 
 7 G. fortis early…   17.2    0.0172  69     20.3   11.9    9.8    9       1.86 
 8 G. fortis early…   17.2    0.0172  68.5   19.2   11.4    9.8    8.6     0.879
 9 G. fortis early…   16.5    0.0165  66.3   18.7    9.04   8.42   7.98   -0.227
10 G. fortis early…   19.4    0.0194  69     18.7   11.3    9.6    8.8     1.39 
# ℹ 170 more rows
# ℹ 3 more variables: pc1_beak <dbl>, pc2_beak <dbl>, is_early <lgl>
…
