Working with data
…
Subsetting data

R
Python

We can subset the data in our gapminder table by column or row. The tidyverse package has a series of useful functions that allow you to do this.

Subsetting by column

We can use the select() function to select certain columns, for example if we just wanted the country and year column. The first argument we give to the function is the data set, followed by the name of the columns we want:

select(gapminder, country, year)

# A tibble: 167 × 2
   country               year
   <chr>                <dbl>
 1 Afghanistan           2010
 2 Angola                2010
 3 Albania               2010
 4 United Arab Emirates  2010
 5 Argentina             2010
 6 Armenia               2010
 7 Antigua and Barbuda   2010
 8 Australia             2010
 9 Austria               2010
10 Azerbaijan            2010
# … with 157 more rows
…
